 %% PLEASE DO NOT MODIFY OR DELETE THIS FILE! %% 
 %% This file contains information about the installation of an application. %% 
 %% It will be used to automatically remove all application components from your computer if you choose to do so. %% 


NOTE: Beginning of the bootstrapper section

CONFIG: Title: "Prism Dice"

ACTION: RegKey: "HKEY_LOCAL_MACHINE\SOFTWARE\Microsoft\Windows\CurrentVersion", "SharedDLLs"

ACTION: SystemFile: "C:\WINNT\system32\VB6STKIT.DLL"
(File currently on disk was already up to date)

ACTION: SystemFile: "C:\WINNT\system32\COMCAT.DLL"
(File currently on disk was already up to date)

ACTION: SystemFile: "C:\WINNT\system32\MSVCRT40.DLL"
(File currently on disk was already up to date)

ACTION: SystemFile: "C:\WINNT\system32\STDOLE2.TLB"
(File currently on disk was already up to date)

ACTION: SystemFile: "C:\WINNT\system32\ASYCFILT.DLL"
(File currently on disk was already up to date)

ACTION: SystemFile: "C:\WINNT\system32\OLEPRO32.DLL"
(File currently on disk was already up to date)

ACTION: SystemFile: "C:\WINNT\system32\OLEAUT32.DLL"
(File currently on disk was already up to date)

ACTION: SystemFile: "C:\WINNT\system32\msvbvm60.dll"
(File was not found or was an older version -- new file copied)

ACTION: DllSelfRegister: "C:\WINNT\SYSTEM32\COMCAT.DLL"

ACTION: TLBRegister: "C:\WINNT\SYSTEM32\STDOLE2.TLB"

ACTION: DllSelfRegister: "C:\WINNT\SYSTEM32\OLEPRO32.DLL"

ACTION: DllSelfRegister: "C:\WINNT\SYSTEM32\OLEAUT32.DLL"

ACTION: DllSelfRegister: "C:\WINNT\SYSTEM32\msvbvm60.dll"

NOTE: End of the bootstrapper section

NOTE: Now spawning the main Setup program 'Setup1.exe'....

ACTION: PrivateFile: "C:\Program Files\Prism Dice\Dice.cnt"
(File currently on disk was already up to date)

ACTION: PrivateFile: "C:\Program Files\Prism Dice\dice.wav"
(File currently on disk was already up to date)

ACTION: PrivateFile: "C:\Program Files\Prism Dice\DICE.HLP"
(File currently on disk was already up to date)

ACTION: SharedFile: "C:\WINNT\System32\Mci32.ocx"
(File was not found or was an older version -- new file copied)

ACTION: SharedFile: "C:\WINNT\System32\VB5DB.DLL"
(File was not found or was an older version -- new file copied)

ACTION: SystemFile: "C:\WINNT\System32\MSREPL35.DLL"
(File was not found or was an older version -- new file copied)

ACTION: SystemFile: "C:\WINNT\System32\MSRD2X35.DLL"
(File was not found or was an older version -- new file copied)

ACTION: SystemFile: "C:\WINNT\System32\expsrv.dll"
(File was not found or was an older version -- new file copied)

ACTION: SystemFile: "C:\WINNT\System32\vbajet32.dll"
(File was not found or was an older version -- new file copied)

ACTION: SystemFile: "C:\WINNT\System32\MSJINT35.DLL"
(File was not found or was an older version -- new file copied)

ACTION: SystemFile: "C:\WINNT\System32\MSJTER35.DLL"
(File was not found or was an older version -- new file copied)

ACTION: SystemFile: "C:\WINNT\System32\MSJET35.DLL"
(File was not found or was an older version -- new file copied)

ACTION: SharedFile: "C:\Program Files\Common Files\Microsoft Shared\DAO\DAO350.DLL"
(File was not found or was an older version -- new file copied)

ACTION: SharedFile: "C:\WINNT\System32\comctl32.ocx"
(File was not found or was an older version -- new file copied)

NOTE: The file 'RICHED32.DLL' was not copied because it is intended for use under Windows 95 only.  It is not needed under Windows NT 3.51 or 4.0.

ACTION: SharedFile: "C:\WINNT\System32\RICHTX32.OCX"
(File was not found or was an older version -- new file copied)

ACTION: SharedFile: "C:\WINNT\System32\tabctl32.ocx"
(File was not found or was an older version -- new file copied)

ACTION: SharedFile: "C:\WINNT\System32\Comdlg32.ocx"
(File was not found or was an older version -- new file copied)

ACTION: PrivateFile: "C:\Program Files\Prism Dice\Prism Dice.exe"
(File was not found or was an older version -- new file copied)

ACTION: DllSelfRegister: "C:\WINNT\System32\Mci32.ocx"

ACTION: DllSelfRegister: "C:\WINNT\System32\MSRD2X35.DLL"

ACTION: DllSelfRegister: "C:\WINNT\System32\MSJET35.DLL"

ACTION: DllSelfRegister: "C:\Program Files\Common Files\Microsoft Shared\DAO\DAO350.DLL"

ACTION: DllSelfRegister: "C:\WINNT\System32\comctl32.ocx"

ACTION: DllSelfRegister: "C:\WINNT\System32\RICHTX32.OCX"

ACTION: DllSelfRegister: "C:\WINNT\System32\tabctl32.ocx"

ACTION: DllSelfRegister: "C:\WINNT\System32\Comdlg32.ocx"

ACTION: ShellLink: "Roleplaying", "Prism Dice"

ACTION: RegKey: "HKEY_LOCAL_MACHINE\SOFTWARE\Microsoft\Windows\CurrentVersion", "App Paths\Prism Dice.exe"

ACTION: RegValue: "HKEY_LOCAL_MACHINE\SOFTWARE\Microsoft\Windows\CurrentVersion\App Paths\Prism Dice.exe", ""

